Tibias
…
Confirmo la correcta clasificación de la edad en franjas.

tibias[,c('Edad', "Edad_f")]

## # A tibble: 83 x 2
##     Edad Edad_f 
##    <dbl> <fct>  
##  1    32 30-39 a
##  2    39 30-39 a
##  3    53 50-59 a
##  4    28 20-29 a
##  5    48 40-49 a
##  6    39 30-39 a
##  7    27 20-29 a
##  8    68 60-69 a
##  9    20 20-29 a
## 10    57 50-59 a
## # ... with 73 more rows
…
